Building DAG of jobs...
Nothing to be done.
Complete log: /lustre/scratch117/cellgen/teamtrynka/marta/simulation_WGS_exome_data/code/simulate_WG_exome_seq_from_genotype/.snakemake/log/2021-04-20T010317.978754.snakemake.log
