Building DAG of jobs...
Using shell: /usr/local/bin/bash
Provided cluster nodes: 3
Job counts:
	count	jobs
	1	all
	3	estimate_weights
	1	sample_read_depth_WGS
	1	simulate_variants_WGS
	6

[Wed May 26 10:58:53 2021]
Job 11: Sampling read depth at different coverages for SNPs present in genotype file. Number of snps to process in snp_chunks Run with snakemake --jobs 3 --cluster [comma] bsub -G teamtrynka -q normal -n 1 -M40000 -R'span[hosts=1] select[mem>40000] rusage[mem=40000]' -o ../../logs/log_pool_8d_sample_read_depth_WGS.%J.%I -e ../../errors/error_pool_8d_sample_read_depth_WGS.%J.%I [comma]

Submitted job 11 with external jobid 'Job <624442> is submitted to queue <normal>.'.

[Wed May 26 10:58:53 2021]
Job 16: Calculating donor proportions (weights) from estimated minor allele frequency and genotype file. Run with snakemake --jobs 1 --cluster [comma] bsub -G teamtrynka -q normal -n 1 -M100000 -R'span[hosts=1] select[mem>100000] rusage[mem=100000]' -o ../../logs/log_pool_19d_estimate_weights.%J.%I -e ../../errors/error_pool_19d_estimate_weights.%J.%I [comma]

Submitted job 16 with external jobid 'Job <624443> is submitted to queue <normal>.'.

[Wed May 26 10:58:53 2021]
Job 18: Calculating donor proportions (weights) from estimated minor allele frequency and genotype file. Run with snakemake --jobs 1 --cluster [comma] bsub -G teamtrynka -q normal -n 1 -M100000 -R'span[hosts=1] select[mem>100000] rusage[mem=100000]' -o ../../logs/log_pool_20d_similar_estimate_weights.%J.%I -e ../../errors/error_pool_20d_similar_estimate_weights.%J.%I [comma]

Submitted job 18 with external jobid 'Job <624444> is submitted to queue <normal>.'.
[Wed May 26 10:59:43 2021]
Finished job 11.
1 of 6 steps (17%) done

[Wed May 26 10:59:43 2021]
Job 14: Simulating the exome variants from the genotypes and sampled number of reads. Run with snakemake --jobs 1 --cluster [comma] bsub -G teamtrynka -q long -n 8 -M320000 -R'span[hosts=1] select[mem>320000] rusage[mem=320000]' -o ../../logs/log_pool_8d_simulate_variants_WGS.%J.%I -e ../../errors/error_pool_8d_simulate_variants_WGS.%J.%I [comma]

WorkflowError in line 163 of /lustre/scratch117/cellgen/teamtrynka/marta/simulation_WGS_exome_data/code/simulate_WG_exome_seq_from_genotype/Snakefile:
'Params' object has no attribute 'cores'
